<?xml version="1.0" encoding="utf-8"?>
<!-- Generator: Adobe Illustrator 16.0.0, SVG Export Plug-In . SVG Version: 6.00 Build 0)  -->
<!DOCTYPE svg PUBLIC "-//W3C//DTD SVG 1.1//EN" "http://www.w3.org/Graphics/SVG/1.1/DTD/svg11.dtd">
<svg version="1.1" xmlns="http://www.w3.org/2000/svg" xmlns:xlink="http://www.w3.org/1999/xlink" x="0px" y="0px" width="120px"
	 height="120px" viewBox="0 0 120 120" enable-background="new 0 0 120 120" xml:space="preserve">
<g id="icon_1" display="none">
	<g id="car" display="inline">
		<path fill="none" stroke="#FF0000" stroke-miterlimit="10" d="M37.773,55.735"/>
		<path fill="none" stroke="#FF0000" stroke-miterlimit="10" d="M75.146,55.672"/>
		<path d="M91.31,80.03c0,2.189-1.77,3.97-3.97,3.97c-2.189,0-3.96-1.78-3.96-3.97c0-2.19,1.771-3.971,3.96-3.971
			C89.54,76.06,91.31,77.84,91.31,80.03z"/>
		<path fill="#1DA4FF" d="M93.32,71H91.76l-3.52-10.22l0.06-0.21l-2.68-7.2C84.89,51.3,82.61,50,80.31,50h-26.5
			c-0.15,0-0.3,0.01-0.44,0.02c-0.12,0.01-0.25,0.02-0.37,0.04c-2.03,0.26-3.86,1.49-4.5,3.31L45.54,61.6L45.41,62.2L42.43,71h-1.3
			C39.4,71,38,72.34,38,74v14c0,1.66,1.4,3,3.13,3H42v7c0,1.1,0.9,2,2,2h4c1.1,0,2-0.9,2-2v-7h35v7c0,1.1,0.9,2,2,2h4
			c1.1,0,2-0.9,2-2v-7h0.32C95.05,91,96,89.66,96,88V74C96,72.34,95.05,71,93.32,71z M50.01,57.87l1.2-3.53
			c0.31-0.88,1.47-1.34,2.6-1.34h26.5c1.101,0,2.29,0.64,2.61,1.54l1.021,2.68L88.68,71H45.52L50.01,57.87z M47.34,84
			c-2.19,0-3.96-1.78-3.96-3.97c0-2.19,1.77-3.971,3.96-3.971c2.2,0,3.97,1.78,3.97,3.971C51.31,82.22,49.54,84,47.34,84z M87.34,84
			c-2.189,0-3.96-1.78-3.96-3.97c0-2.19,1.771-3.971,3.96-3.971c2.2,0,3.97,1.78,3.97,3.971C91.31,82.22,89.54,84,87.34,84z"/>
		<path fill="#FFFFFF" d="M91.31,80.03c0,2.189-1.77,3.97-3.97,3.97c-2.189,0-3.96-1.78-3.96-3.97c0-2.19,1.771-3.971,3.96-3.971
			C89.54,76.06,91.31,77.84,91.31,80.03z"/>
	</g>
	<g id="sun" display="inline">
		<circle fill="#FFBF4D" cx="36.5" cy="35.083" r="6"/>
		<rect x="36" y="20" fill="#FFBF4D" width="1" height="7"/>
		<rect x="36" y="43" fill="#FFBF4D" width="1" height="7"/>
		<rect x="21" y="35" fill="#FFBF4D" width="7" height="1"/>
		<rect x="44" y="35" fill="#FFBF4D" width="7" height="1"/>
		
			<rect x="43.985" y="23.722" transform="matrix(-0.7071 -0.7071 0.7071 -0.7071 56.692 77.9265)" fill="#FFBF4D" width="1" height="7"/>
		
			<rect x="27.722" y="39.985" transform="matrix(-0.7071 -0.7071 0.7071 -0.7071 17.4292 94.1896)" fill="#FFBF4D" width="1" height="7"/>
		
			<rect x="27.015" y="23.722" transform="matrix(-0.7071 0.7071 -0.7071 -0.7071 66.2197 27.0148)" fill="#FFBF4D" width="1" height="7"/>
		
			<rect x="43.278" y="39.985" transform="matrix(-0.7071 0.7071 -0.7071 -0.7071 105.4825 43.2779)" fill="#FFBF4D" width="1" height="7"/>
	</g>
</g>
<g id="icon_2" display="none">
	<path display="inline" fill-rule="evenodd" clip-rule="evenodd" fill="#1C6BAD" d="M7.566,54.345
		c0.411-0.115,0.52-0.513,0.726-0.806c6.083-8.648,12.168-17.296,18.218-25.968c0.523-0.75,0.861-0.849,1.616-0.287
		c2.078,1.549,4.239,2.985,6.343,4.499c2.61,1.877,3.109,4.792,1.258,7.438c-4.497,6.429-9.005,12.85-13.529,19.258
		c-1.754,2.484-4.809,2.99-7.301,1.255c-2.128-1.482-4.238-2.987-6.368-4.465c-0.295-0.205-0.536-0.543-0.962-0.516
		C7.566,54.619,7.566,54.482,7.566,54.345z M17.854,53.875c0-1.084-0.846-1.961-1.902-1.972c-1.079-0.011-2.032,0.95-2.001,2.015
		c0.031,1.07,0.902,1.896,1.992,1.889C17.062,55.801,17.853,55.001,17.854,53.875z"/>
	<path display="inline" fill-rule="evenodd" clip-rule="evenodd" fill="#1C6BAD" d="M112.434,59.261
		c-2.594,1.291-5.184,2.584-7.78,3.872c-3.028,1.498-5.887,0.563-7.388-2.438C93.804,53.774,90.348,46.85,86.9,39.923
		c-1.479-2.972-0.522-5.805,2.444-7.3c2.283-1.15,4.588-2.26,6.851-3.449c0.746-0.392,1.079-0.375,1.495,0.467
		c4.681,9.473,9.408,18.922,14.131,28.375c0.18,0.358,0.275,0.771,0.612,1.041C112.434,59.125,112.434,59.192,112.434,59.261z
		 M106.25,57.284c-0.012-1.063-0.89-1.923-1.971-1.929c-1.131-0.006-2.024,0.898-1.984,2.008c0.039,1.047,0.961,1.917,2.016,1.898
		C105.356,59.242,106.262,58.32,106.25,57.284z"/>
	<path display="inline" fill-rule="evenodd" clip-rule="evenodd" fill="#1C6BAD" d="M56.5,86.314
		c-0.17,1.176,0.218,2.094,1.172,2.83c0.536,0.414,0.938,1,1.467,1.424c0.742,0.594,0.47,0.957-0.166,1.363
		c-1.586,1.01-3.24,1.217-4.956,0.404c-0.492-0.232-0.911-0.275-1.453-0.164c-2.428,0.5-4.698-0.813-5.576-3.238
		c-0.222-0.613-0.364-0.639-0.873-0.291c-1.784,1.221-3.65,1.277-5.467,0.113c-1.881-1.205-2.485-3.025-2.104-5.152
		c0.111-0.625,0.017-0.789-0.572-0.947c-2.631-0.701-4.101-2.875-3.696-5.537c0.095-0.627-0.144-0.633-0.58-0.738
		c-3.245-0.781-4.736-3.414-3.707-6.617c0.181-0.563-0.042-0.813-0.366-1.131c-1.7-1.68-3.397-3.361-5.088-5.049
		c-1.215-1.211-1.311-2.145-0.341-3.526c4.488-6.396,8.987-12.783,13.469-19.183c0.493-0.703,1.113-1.028,1.963-1.091
		c2.006-0.146,4.005-0.384,6.011-0.526c2.954-0.208,5.772,0.359,8.432,1.655c0.499,0.244,0.871,0.267,1.406,0.022
		c3.783-1.73,7.713-3.097,11.614-4.528c1.508-0.552,3.097-0.451,4.622,0.094c4.012,1.431,8.017,2.878,12.029,4.306
		c0.656,0.233,1.087,0.67,1.389,1.276c3.361,6.743,6.73,13.482,10.083,20.229c0.617,1.24,0.447,2.061-0.599,3.018
		c-2.344,2.141-4.694,4.275-7.067,6.383c-0.498,0.439-0.561,0.725-0.035,1.184c0.641,0.559,1.25,1.166,1.807,1.811
		c1.493,1.73,1.854,3.725,1.008,5.822c-0.838,2.072-2.305,3.533-4.634,3.879c-0.926,0.137-1.684-0.119-2.386-0.832
		c-3.21-3.26-6.472-6.465-9.716-9.689c-0.169-0.17-0.335-0.342-0.512-0.502c-0.292-0.264-0.612-0.32-0.908-0.029
		c-0.292,0.287-0.253,0.627-0.023,0.928c0.186,0.242,0.416,0.451,0.633,0.668c3.268,3.248,6.524,6.51,9.816,9.734
		c0.506,0.494,0.657,1.002,0.293,1.529c-1.543,2.236-3.128,4.461-6.189,4.691c-1.149,0.086-2.162-0.131-3.056-1.039
		c-3.682-3.754-7.426-7.443-11.149-11.152c-0.216-0.217-0.438-0.441-0.695-0.592c-0.246-0.145-0.538-0.117-0.741,0.129
		c-0.188,0.225-0.264,0.494-0.069,0.75c0.184,0.244,0.394,0.469,0.609,0.686c3.068,3.064,6.113,6.148,9.226,9.166
		c0.702,0.682,0.601,1.061,0.011,1.705c-1.885,2.059-4.125,2.936-6.896,2.326c-0.556-0.123-0.992-0.393-1.391-0.795
		c-1.751-1.773-3.519-3.529-5.29-5.283c-0.209-0.209-0.365-0.506-0.715-0.535c-0.026-0.076-0.038-0.188-0.146-0.064
		C56.394,86.211,56.463,86.277,56.5,86.314z M61.527,47.013c0.41,0,0.821-0.027,1.228,0.005c1.151,0.092,1.56,0.591,1.227,1.685
		c-0.176,0.577,0.114,0.817,0.426,1.126c6.811,6.796,13.629,13.585,20.424,20.397c0.505,0.506,0.799,0.506,1.312,0.031
		c2.203-2.039,4.426-4.061,6.683-6.037c0.599-0.525,0.662-0.932,0.307-1.637c-3.177-6.299-6.323-12.614-9.453-18.936
		c-0.281-0.569-0.663-0.87-1.249-1.076c-3.629-1.279-7.255-2.57-10.865-3.905c-1.582-0.585-3.106-0.595-4.678,0.019
		c-2.95,1.153-5.887,2.354-8.888,3.358c-2.125,0.712-3.679,1.84-4.279,4.07c-0.043,0.163-0.139,0.31-0.209,0.466
		c-2.248,4.929-4.488,9.861-6.748,14.785c-0.386,0.842-0.427,1.607,0.367,2.189c0.547,0.4,1.174,0.65,1.896,0.666
		c1.982,0.045,3.426-1.021,4.756-2.279c3.743-3.54,5.316-8.071,5.831-13.051C59.815,46.922,59.76,46.917,61.527,47.013z
		 M46.536,78.268c-0.533-0.031-1.192,0.211-1.714,0.754c-1.225,1.275-2.468,2.539-3.642,3.861c-0.988,1.111-0.856,2.748,0.21,3.777
		c1.062,1.021,2.706,1.08,3.776,0.027c1.284-1.266,2.527-2.576,3.716-3.93c0.757-0.863,0.865-1.91,0.335-2.955
		C48.715,78.809,47.89,78.285,46.536,78.268z M40.807,73.145c-0.549-0.027-1.176,0.205-1.679,0.713
		c-0.719,0.723-1.45,1.441-2.114,2.213c-1.03,1.201-0.939,2.809,0.157,3.861c1.096,1.049,2.711,1.064,3.86-0.029
		c0.762-0.727,1.492-1.498,2.155-2.313c0.697-0.859,0.822-1.859,0.324-2.871C43,73.682,42.149,73.141,40.807,73.145z M37.29,71.559
		c0.004-1.541-1.262-2.824-2.779-2.816c-1.506,0.008-2.791,1.328-2.771,2.85c0.02,1.479,1.275,2.742,2.749,2.766
		C35.994,74.381,37.287,73.09,37.29,71.559z M51.575,84.617c-1.509,0.014-2.755,1.238-2.768,2.719
		c-0.013,1.521,1.271,2.824,2.792,2.834c1.508,0.006,2.839-1.316,2.822-2.807C54.402,85.813,53.148,84.604,51.575,84.617z"/>
	<path display="inline" fill-rule="evenodd" clip-rule="evenodd" fill="#FEFEFE" d="M56.5,86.314
		c-0.037-0.037-0.106-0.104-0.104-0.107c0.109-0.123,0.12-0.012,0.146,0.064C56.543,86.271,56.5,86.314,56.5,86.314z"/>
</g>
<g id="icon_3" display="none">
	<g display="inline">
		<path fill-rule="evenodd" clip-rule="evenodd" d="M92.946,76.965c0,0,1.053-6.34-7.73-13.281c0,0-25.714-7.399-44.019,7.64
			c0,0-12.88,2.677-14.724,8.677h1.152c0,0,0.375,2.273-2.625,2.382v2.989c0,0-0.049,3.629,4.293,3.629h3.712
			c0,0-0.461-10.298,8.638-10.405C50.749,78.487,50.426,89,50.426,89H71.43c0,0-1.384-10.405,8.046-10.405
			c9.429,0,8.346,10.405,8.346,10.405h5.125C92.946,89,97.749,82.167,92.946,76.965z M45.815,74.551
			c-1.345-0.576,1.66-3.074,1.66-3.074c8.906-7.432,20.05-6.985,20.05-6.985c2.62-0.124,2.305,1.153,2.305,1.153l-0.261,5.832
			c-0.062,2.498-2.689,2.689-2.689,2.689L45.815,74.551z M70,76.647C70,77.395,69.394,78,68.646,78h-6.293
			C61.606,78,61,77.395,61,76.647v-0.295C61,75.605,61.606,75,62.354,75h6.293C69.394,75,70,75.605,70,76.353V76.647z M86.284,73
			H73.158c0,0-1.353,0.26-1.353-1.146l0.008-6.244c0,0-0.254-1.742,3.012-0.844c0,0,9.86,2.188,12.42,6.1
			C87.245,70.865,89.489,74,86.284,73z"/>
	</g>
	<g display="inline">
		<path fill-rule="evenodd" clip-rule="evenodd" fill="#2879BB" d="M41.589,82.043c-3.043,0-5.51,2.467-5.51,5.511
			c0,3.035,2.467,5.502,5.51,5.502c3.036,0,5.502-2.467,5.502-5.502C47.091,84.51,44.625,82.043,41.589,82.043z M41.681,90.243
			c-1.398,0-2.528-1.138-2.528-2.536c0-1.391,1.13-2.528,2.528-2.528s2.528,1.138,2.528,2.528
			C44.209,89.105,43.08,90.243,41.681,90.243z"/>
	</g>
	<g display="inline">
		<path fill-rule="evenodd" clip-rule="evenodd" fill="#2879BB" d="M79.244,82.043c-3.043,0-5.509,2.467-5.509,5.511
			c0,3.035,2.466,5.502,5.509,5.502c3.036,0,5.503-2.467,5.503-5.502C84.747,84.51,82.28,82.043,79.244,82.043z M79.337,90.243
			c-1.399,0-2.528-1.138-2.528-2.536c0-1.391,1.129-2.528,2.528-2.528c1.398,0,2.528,1.138,2.528,2.528
			C81.865,89.105,80.735,90.243,79.337,90.243z"/>
	</g>
	<g display="inline">
		<path fill="#2879BB" d="M41.536,66.867c-6.431-5.073-10.15-11.668-11.053-19.603c-0.024-0.213-0.04-0.372-0.059-0.47
			c-0.262-1.041-0.408-7.05-0.487-9.583L30,37.17v-0.041c0-3.404,3.222-4.48,4.91-4.574l0.1-0.007l0.116,0.016
			c3.543,0.41,9.333-2.7,11.387-4.004c3.301-2.757,6.875-1.409,8.316-0.17C59.025,32.353,65.825,32,65.889,32
			c0.001,0,0.002,0,0.003,0c2.083,0,3.269,1.068,3.902,1.759c1.31,1.431,1.281,3.426,1.256,3.858
			c-0.207,14.269-5.769,21.925-6.006,22.243l-2.461-1.81l1.23,0.936l-1.234-0.91c0.053-0.07,5.216-7.202,5.397-20.425l0.006-0.111
			c0.015-0.242-0.036-1.014-0.466-1.472c-0.316-0.336-0.851-0.506-1.59-0.506c-0.285,0.013-8.044,0.152-13.122-4.611
			c-0.431-0.35-2.368-1.723-4.383,0.013l-0.17,0.127c-0.324,0.208-7.918,5.053-13.335,4.542c-0.433,0.048-1.916,0.303-1.97,1.53
			c0.121,3.881,0.328,8.268,0.468,8.924c0.049,0.199,0.077,0.436,0.122,0.829c0.808,7.091,4.14,12.991,9.903,17.538L41.536,66.867z"
			/>
	</g>
	<g display="inline">
		<path fill="#2879BB" d="M50.461,59.001c-6.126,0-11.111-4.984-11.111-11.111s4.984-11.111,11.111-11.111
			c2.679,0,5.268,0.967,7.288,2.723c0.32,0.278,0.354,0.764,0.076,1.084c-0.278,0.32-0.765,0.354-1.084,0.076
			c-1.741-1.513-3.971-2.346-6.28-2.346c-5.279,0-9.574,4.295-9.574,9.574c0,5.279,4.295,9.574,9.574,9.574
			c5.28,0,9.574-4.295,9.574-9.574c0-1.417-0.302-2.782-0.898-4.056c-0.18-0.384-0.014-0.842,0.371-1.022
			c0.382-0.179,0.841-0.014,1.021,0.371c0.692,1.479,1.044,3.063,1.044,4.707C61.572,54.017,56.588,59.001,50.461,59.001z"/>
	</g>
	<g display="inline">
		<polygon fill="#2879BB" points="60.193,38.955 53.623,49.821 53.247,50.459 53.239,50.467 52.67,50.997 51.671,51.927 
			51.302,51.65 50.181,49.882 47.099,45.041 51.594,48.338 		"/>
	</g>
	<g display="inline">
		<polygon points="51.671,51.927 51.548,52.042 51.302,51.65 		"/>
	</g>
	<g display="inline">
		<line fill="none" x1="53.623" y1="49.821" x2="53.247" y2="50.459"/>
	</g>
	<g display="inline">
		<path fill="none" d="M52.137,52.278l-2.46-1.843L52.137,52.278z"/>
	</g>
</g>
<g id="icon_4" display="none">
	<circle display="inline" fill-rule="evenodd" clip-rule="evenodd" fill="#99CB51" cx="190" cy="60" r="60"/>
	
		<circle display="inline" fill-rule="evenodd" clip-rule="evenodd" fill="#FFFFFF" stroke="#99CB51" stroke-width="2" stroke-miterlimit="10" cx="53.182" cy="36.467" r="8.463"/>
	<g display="inline">
		<path fill-rule="evenodd" clip-rule="evenodd" fill="#FFFFFF" d="M38.03,56.29L38.02,57H38C38,56.76,38.01,56.53,38.03,56.29z"/>
	</g>
	<path display="inline" fill="#FFFFFF" stroke="#99CB51" stroke-width="2" stroke-miterlimit="10" d="M38,55v1.29L38.005,57
		l-0.027,6.695L38,64c0,1.65,5.4,3,12,3h5c6.6,0,12-1.35,12-3v-9v2c0-6.6-5.4-12-12-12h-5c-6.36,0-11.61,5.02-11.97,11.29
		C38.01,56.53,38,56.76,38,57"/>
	
		<circle display="inline" fill-rule="evenodd" clip-rule="evenodd" fill="#FFFFFF" stroke="#99CB51" stroke-width="2" stroke-miterlimit="10" cx="80.182" cy="44.467" r="8.463"/>
	<g display="inline">
		<path fill-rule="evenodd" clip-rule="evenodd" fill="#FFFFFF" d="M65.029,64.29L65.02,65H65C65,64.76,65.01,64.53,65.029,64.29z"
			/>
	</g>
	<path display="inline" fill="#FFFFFF" stroke="#99CB51" stroke-width="2" stroke-miterlimit="10" d="M65,63v1.29L65.005,65
		l-0.027,6.695L65,72c0,1.65,5.4,3,12,3h5c6.6,0,12-1.35,12-3v-9v2c0-6.6-5.4-12-12-12h-5c-6.359,0-11.609,5.02-11.971,11.29
		C65.01,64.53,65,64.76,65,65"/>
	
		<circle display="inline" fill-rule="evenodd" clip-rule="evenodd" fill="#FFFFFF" stroke="#99CB51" stroke-width="2" stroke-miterlimit="10" cx="67.182" cy="52.467" r="8.463"/>
	<g display="inline">
		<path fill-rule="evenodd" clip-rule="evenodd" fill="#FFFFFF" d="M52.029,72.29L52.02,73H52C52,72.76,52.01,72.53,52.029,72.29z"
			/>
	</g>
	<path display="inline" fill="#FFFFFF" stroke="#99CB51" stroke-width="2" stroke-miterlimit="10" d="M52,71v1.29L52.005,73
		l-0.027,6.695L52,80c0,1.65,5.4,3,12,3h5c6.6,0,12-1.35,12-3v-9v2c0-6.6-5.4-12-12-12h-5c-6.359,0-11.609,5.02-11.971,11.29
		C52.01,72.53,52,72.76,52,73"/>
	
		<circle display="inline" fill-rule="evenodd" clip-rule="evenodd" fill="#FFFFFF" stroke="#99CB51" stroke-width="2" stroke-miterlimit="10" cx="39.182" cy="52.467" r="8.463"/>
	<g display="inline">
		<path fill-rule="evenodd" clip-rule="evenodd" fill="#FFFFFF" d="M24.029,72.29L24.02,73H24C24,72.76,24.01,72.53,24.029,72.29z"
			/>
	</g>
	<path display="inline" fill="#FFFFFF" stroke="#99CB51" stroke-width="2" stroke-miterlimit="10" d="M24,71v1.29L24.005,73
		l-0.027,6.695L24,80c0,1.65,5.4,3,12,3h5c6.6,0,12-1.35,12-3v-9v2c0-6.6-5.4-12-12-12h-5c-6.359,0-11.609,5.02-11.971,11.29
		C24.01,72.53,24,72.76,24,73"/>
	
		<circle display="inline" fill-rule="evenodd" clip-rule="evenodd" fill="#FFFFFF" stroke="#99CB51" stroke-width="2" stroke-miterlimit="10" cx="54.182" cy="61.467" r="8.463"/>
	<g display="inline">
		<path fill-rule="evenodd" clip-rule="evenodd" fill="#FFFFFF" d="M39.029,81.29L39.02,82H39C39,81.76,39.01,81.53,39.029,81.29z"
			/>
	</g>
	<path display="inline" fill="#FFFFFF" stroke="#99CB51" stroke-width="2" stroke-miterlimit="10" d="M39,80v1.29L39.005,82
		l-0.027,6.695L39,89c0,1.65,5.4,3,12,3h5c6.6,0,12-1.35,12-3v-9v2c0-6.6-5.4-12-12-12h-5c-6.359,0-11.609,5.02-11.971,11.29
		C39.01,81.53,39,81.76,39,82"/>
</g>
<g id="icon_5">
	<g>
		<path fill="#2E3192" d="M40.034,47.51l-0.521,0.997l0.619-0.997H40.034z"/>
	</g>
	<g>
		<polygon fill="#2E3192" points="37.82,84.779 37.667,84.823 37.667,84.779 		"/>
		<path fill="#2E3192" d="M41.508,84.943l-0.038-0.164h0.033v0.027C41.503,84.85,41.503,84.899,41.508,84.943z"/>
		<path fill="#2E3192" d="M79.857,84.905c-0.05-0.039-0.247-0.082-0.247-0.126h0.153L79.857,84.905z"/>
		<path fill="#2E3192" d="M83.448,84.779c0,0.07-0.022,0.147-0.062,0.219c-0.049,0.109-0.125,0.219-0.175,0.329l0.093-0.351
			l0.05-0.197H83.448z"/>
	</g>
	<g>
		<polygon fill="#2E3192" points="37.82,84.779 37.667,84.823 37.667,84.779 		"/>
		<polygon fill="#2E3192" points="40.083,79.298 40.078,79.298 40.007,79.029 		"/>
		<polygon fill="#2E3192" points="83.448,84.779 83.387,84.998 83.305,84.977 83.354,84.779 		"/>
	</g>
	<g>
		<path fill="#2E3192" d="M83.212,85.327l-0.055,0.213C83.157,85.47,83.179,85.398,83.212,85.327z"/>
	</g>
	<g>
		<path fill="#2E3192" d="M90.556,51h-4.91c-0.69-2-2.735-3-5.355-3h-0.143l-8.023-15.674c0.104-0.345,0.159-0.835,0.159-1.214
			c0-2.12-1.722-3.897-3.837-3.897c-2.121,0-3.837,1.685-3.837,3.805c0,1.716,1.118,3.147,2.67,3.641l7.838,14.88
			C74.7,50.03,74.371,51,74.152,51H45.636c-0.159,0-0.384-0.835-0.674-1.269l8.007-15.303c1.365-0.586,2.324-1.897,2.324-3.481
			c0-2.121-1.721-3.814-3.836-3.814c-2.121,0-3.836,1.726-3.836,3.847c0,0.576,0.126,1.129,0.356,1.617l-7.843,14.911l-0.619,1.244
			L40.034,48h-0.049c-2.713,0-5.026,1-5.843,3h-4.423C28.36,51,27,52.453,27,53.813v7.673C27,62.845,28.36,64,29.719,64H31.9
			l4.374,15.941l1.419,5.562C38.11,89.581,42.106,93,46.979,93h27.13c4.85,0,8.846-3.398,9.295-7.453l-0.296,1.238l-0.193-0.027
			L83,85.547V85.54c0-0.07,0.1-0.142,0.133-0.213l0.133-0.241L83.354,85h0.094l1.293-4.955l0.011-0.075L89.016,64h1.54
			C91.915,64,93,62.845,93,61.485v-7.673C93,52.453,91.915,51,90.556,51z M35.88,64h7.432l0.959,6h-6.741L35.88,64z M37.667,84.823
			v-0.044h0.153L37.667,84.823z M40.078,80l-0.071-0.619l-0.011-0.139L38.582,74h6.303l0.877,6H40.078z M46.979,89
			c-2.346,0-4.341-1.229-5.13-2.834c-0.005-0.011-0.011,0.024-0.011,0.014l-0.329-1.256l-0.038-0.155l-0.236-0.933l0.087-0.086
			L41.136,83h5.24l0.964,6H46.979z M58,89h-6.774l-0.965-6H58V89z M58,80h-8.353l-0.877-6H58V80z M58,70h-9.843l-0.965-6H58V70z
			 M69.564,89H63v-6h7.568L69.564,89z M71.209,80H63v-6h9.118L71.209,80z M63,70v-6h10.763l-1.003,6H63z M79.912,83.09l-0.235,0.927
			l0.137,0.099l0.038,0.074l-0.088,0.586l0.16,0.127L80,84.921v0.011c0,0.324,0,0.647,0,0.96v0.005l-0.268-0.064
			C79.068,87.591,76.618,89,74.108,89h-0.652l1.003-6h5.459L79.912,83.09z M81.019,79.449L80.942,80h-5.848l0.915-6h6.396
			L81.019,79.449z M83.432,70h-6.785l1.002-6h7.395L83.432,70z M89,60H31v-4h7v-2.884C38,52.021,38.872,51,39.985,51h0.296
			C41.404,51,42,51.993,42,53.116V56h35v-2.884C77,52.021,78.882,51,79.994,51h0.296c1.124,0,1.71,0.993,1.71,2.116V56h7V60z"/>
		<polygon fill="#2E3192" points="37.82,84.779 37.667,84.823 37.667,84.779 		"/>
	</g>
</g>
<g id="icon_6" display="none">
	<g display="inline">
		<path fill="#1A1E75" d="M86.715,53H33.613L23.371,93h73.258L86.715,53z M36.053,57h9.92c-1.2,3-4.524,8.588-12.935,11.52
			L36.053,57z M32.097,72.021C44.431,68.584,48.292,60,49.347,57h34.91l0.847,3.24c-6.046,1.188-26.323,6.059-39.289,20.688
			c-6.015-3.748-11.848-4.094-15.02-3.936L32.097,72.021z M27.465,90l2.478-9.662c2.174-0.221,7.829-0.248,13.806,3.291
			C42.251,85.568,40.887,87,39.698,90H27.465z M43.318,90c0.923-2,1.953-3.076,3.064-4.486C47.919,86.721,49.441,88,50.907,90
			H43.318z M54.856,90c-2.034-3-4.214-5.34-6.413-7.098c12.423-13.686,32.067-18.52,37.444-19.594l1.067,4.354
			C76.271,74.588,72.618,86,71.651,90H54.856z M87.776,71.051L92.572,90H74.931C76.03,86,79.392,76.965,87.776,71.051z"/>
	</g>
	<g display="inline">
		<path fill="#4A90E2" d="M43.735,27c-4.7,0-8.608,3.822-8.608,8.53c0,4.164,2.873,7.639,6.873,8.378V71h3V43.908
			c4-0.739,7.108-4.214,7.108-8.378C52.108,30.822,48.437,27,43.735,27z M43.735,40.9c-2.963,0-5.37-2.413-5.37-5.37
			c0-2.964,2.407-5.371,5.37-5.371c2.964,0,5.371,2.407,5.371,5.371C49.106,38.487,46.699,40.9,43.735,40.9z"/>
	</g>
	<g display="inline">
		<path fill="#4A90E2" d="M72.802,27c-4.701,0-8.642,3.822-8.642,8.53c0,4.164,2.84,7.639,6.84,8.378V70h3V43.908
			c4-0.739,7.141-4.214,7.141-8.378C81.141,30.822,77.503,27,72.802,27z M72.802,40.9c-2.965,0-5.371-2.413-5.371-5.37
			c0-2.964,2.406-5.371,5.371-5.371c2.963,0,5.371,2.407,5.371,5.371C78.173,38.487,75.765,40.9,72.802,40.9z"/>
	</g>
	<g display="inline">
		<path fill="#4A90E2" d="M58.269,39.636c-4.701,0-8.375,3.823-8.375,8.53c0,4.164,3.106,7.64,7.106,8.379V83h3V56.545
			c4-0.739,6.875-4.215,6.875-8.379C66.875,43.459,62.97,39.636,58.269,39.636z M58.269,53.538c-2.963,0-5.371-2.414-5.371-5.371
			c0-2.963,2.408-5.371,5.371-5.371s5.371,2.408,5.371,5.371C63.64,51.124,61.231,53.538,58.269,53.538z"/>
	</g>
</g>
<g id="icon_7" display="none">
	<circle display="inline" fill="#F0582F" cx="190" cy="60" r="60"/>
	<g display="inline">
		<path fill="#6EB1E1" stroke="#646B79" stroke-width="4" stroke-miterlimit="10" d="M15,58V29c0-0.55,0.45-1,1-1h88
			c0.55,0,1,0.45,1,1v29v-3v27H15V55V29c0-0.55,0.45-1,1-1h88c0.55,0,1,0.45,1,1"/>
	</g>
	<path display="inline" fill="#F1F3F7" d="M107,84v8c0,1.65-1.35,3-3,3H16c-1.65,0-3-1.35-3-3v-8H107z"/>
	<ellipse display="inline" fill="#DEDEDF" cx="59.932" cy="89.006" rx="2.116" ry="2.187"/>
	<rect x="47" y="95" display="inline" fill="#DEDEDF" width="26" height="9"/>
	<path display="inline" fill="#F1F3F7" d="M80,110v-1c0-2.75-2.25-5-5-5H45c-2.75,0-5,2.25-5,5v1"/>
	<text transform="matrix(0.7515 0 0 1 32.1064 51.7383)" display="inline"><tspan x="0" y="0" fill="#FFFFFF" font-family="'ArialRoundedMTBold'" font-size="19">ONLINE</tspan><tspan x="-8.623" y="18" fill="#FFFFFF" font-family="'ArialRoundedMTBold'" font-size="19">BANKING</tspan></text>
</g>
<g id="icon_8" display="none">
	<path display="inline" fill-rule="evenodd" clip-rule="evenodd" fill="#277CBE" d="M190.179,2.715
		c31.759-0.009,57.631,25.7,57.674,57.229c0.043,32.359-26.387,58.191-58.409,57.784c-30.734-0.391-56.759-25.222-56.865-57.481
		C132.473,28.501,158.363,2.725,190.179,2.715z M133.818,60.183c0.006,30.578,24.541,55.925,55.64,56.304
		c32.077,0.392,56.74-25.392,57.141-55.494C247.011,30.031,222.058,4,190.322,3.921C159.169,3.843,133.867,29.073,133.818,60.183z"
		/>
	<path display="inline" fill-rule="evenodd" clip-rule="evenodd" fill="#FAFCFD" d="M133.818,60.183
		c0.049-31.11,25.351-56.34,56.504-56.262c31.735,0.08,56.688,26.11,56.276,57.071c-0.4,30.103-25.063,55.886-57.141,55.494
		C158.359,116.107,133.824,90.761,133.818,60.183z M243.429,60.268c0-29.355-23.669-53.054-52.877-53.205
		c-28.985-0.15-53.492,22.901-53.576,52.977c-0.084,29.995,23.97,52.858,52.315,53.305
		C219.565,113.823,243.528,89.413,243.429,60.268z"/>
	<path display="inline" fill-rule="evenodd" clip-rule="evenodd" fill="#1B75BA" d="M243.429,60.268
		c0.1,29.146-23.863,53.556-54.138,53.077c-28.346-0.447-52.399-23.311-52.315-53.305c0.084-30.075,24.591-53.126,53.576-52.977
		C219.76,7.214,243.429,30.913,243.429,60.268z M217.852,77.354c-0.001-7.22-6.277-12.265-13.014-10.768
		c-0.738,0.164-1.2,0.005-1.711-0.522c-1.84-1.897-3.737-3.739-5.588-5.626c-0.426-0.435-0.688-0.538-1.192-0.053
		c-2.117,2.041-4.007,4.316-6.332,6.141c-0.32,0.251-0.146,0.442,0.091,0.628c2.081,1.638,3.735,3.719,5.696,5.479
		c0.813,0.729,1.052,1.417,0.845,2.556c-0.735,4.063,0.548,7.537,3.728,10.137c3.219,2.632,6.895,3.115,10.794,1.632
		c1.257-0.479,1.349-0.941,0.411-1.885c-1.97-1.984-3.952-3.958-5.93-5.935c-0.408-0.408-0.797-0.824-0.943-1.411
		c-0.286-1.146,0.174-2.3,1.158-2.879c1.026-0.604,2.207-0.465,3.154,0.465c2.023,1.985,4.013,4.005,6.021,6.007
		c1.146,1.145,1.523,1.051,2.12-0.493C217.634,79.598,217.862,78.326,217.852,77.354z M173.338,32.676
		c-1.398-0.036-2.735,0.262-4.031,0.759c-1.33,0.51-1.429,0.945-0.439,1.939c1.943,1.955,3.9,3.897,5.846,5.851
		c1.294,1.299,1.434,2.867,0.365,3.944c-1.115,1.126-2.596,1.016-3.942-0.32c-1.931-1.915-3.842-3.848-5.771-5.763
		c-1.098-1.088-1.574-0.993-2.08,0.458c-1.365,3.917-0.869,7.582,1.82,10.769c2.762,3.274,6.378,4.326,10.541,3.497
		c0.682-0.136,1.109-0.014,1.591,0.487c1.616,1.685,3.31,3.296,4.929,4.979c0.519,0.538,0.824,0.562,1.359,0.006
		c1.86-1.93,3.761-3.821,5.684-5.688c0.489-0.475,0.559-0.735,0.025-1.245c-1.715-1.64-3.355-3.359-5.06-5.011
		c-0.495-0.479-0.604-0.898-0.454-1.599C185.168,38.939,180.172,32.684,173.338,32.676z M214.477,51.238
		c-0.562-0.759-1.294-1.445-1.31-2.395c-0.02-1.255-0.466-2.328-1.118-3.319c-3.673-5.583-8.678-9.536-14.922-11.864
		c-2.453-0.914-5.018-0.949-7.551-0.164c-0.306,0.094-0.783,0.125-0.704,0.584c0.056,0.323,0.472,0.342,0.767,0.378
		c1.798,0.22,3.531,0.688,5.174,1.441c1.765,0.81,3.357,1.869,4.319,3.632c0.771,1.414,1.066,2.878,0.122,4.346
		c-0.391,0.607-0.322,1.216,0.075,1.71c0.417,0.521,0.295,0.804-0.128,1.222c-2.834,2.801-5.554,5.723-8.488,8.413
		c-2.285,2.095-4.393,4.359-6.653,6.47c-0.483,0.451-0.617,0.716-0.012,1.234c0.986,0.843,1.883,1.799,2.761,2.759
		c0.393,0.429,0.615,0.388,1,0.013c1.229-1.196,2.521-2.327,3.738-3.535c3.779-3.75,7.544-7.518,11.293-11.299
		c0.537-0.542,0.922-0.929,1.599-0.144c0.395,0.458,1.038,0.708,1.68,0.545c0.88-0.223,1.583,0.104,2.242,0.596
		c0.767,0.572,1.499,1.189,2.261,1.769c0.523,0.397,0.889,0.666,0.222,1.374c-0.671,0.711-0.568,1.642,0.146,2.38
		c0.676,0.699,1.729,0.727,2.477,0.009c1.438-1.379,2.845-2.791,4.227-4.225c0.739-0.767,0.73-1.775,0.077-2.486
		c-0.667-0.725-1.749-0.764-2.589-0.084C214.943,50.791,214.729,51.008,214.477,51.238z M168.598,87.386
		c0.564,0.046,0.92-0.277,1.264-0.665c1.373-1.543,2.762-3.072,4.142-4.61c3.856-4.301,7.716-8.599,11.563-12.908
		c0.9-1.008,0.866-1.845-0.069-2.807c-0.748-0.769-1.506-1.526-2.275-2.271c-0.945-0.914-1.748-0.978-2.716-0.113
		c-5.879,5.248-11.746,10.51-17.603,15.782c-0.984,0.887-0.991,1.604-0.072,2.546c1.47,1.507,2.973,2.981,4.457,4.474
		C167.653,87.181,168.053,87.448,168.598,87.386z"/>
	<path display="inline" fill-rule="evenodd" clip-rule="evenodd" fill="#1B75BA" d="M97.705,60.25
		C97.776,80.782,80.897,97.98,59.56,97.641c-19.967-0.309-36.919-16.423-36.854-37.552c0.054-21.194,17.325-37.433,37.743-37.33
		C81.026,22.866,97.705,39.563,97.705,60.25z"/>
	<path display="inline" fill-rule="evenodd" clip-rule="evenodd" fill="#EFEFF1" d="M87.852,77.354
		c0.011,0.972-0.218,2.243-0.692,3.472c-0.597,1.544-0.974,1.638-2.12,0.493c-2.008-2.002-3.997-4.021-6.021-6.007
		c-0.947-0.93-2.128-1.068-3.154-0.465c-0.984,0.579-1.444,1.732-1.158,2.879c0.146,0.587,0.535,1.003,0.943,1.411
		c1.978,1.977,3.96,3.95,5.93,5.935c0.938,0.943,0.846,1.406-0.411,1.885c-3.899,1.483-7.575,1-10.794-1.632
		c-3.18-2.6-4.463-6.074-3.728-10.137c0.207-1.139-0.031-1.827-0.845-2.556c-1.961-1.76-3.615-3.841-5.696-5.479
		c-0.237-0.186-0.411-0.377-0.091-0.628c2.325-1.825,4.215-4.101,6.332-6.141c0.504-0.485,0.767-0.382,1.192,0.053
		c1.851,1.887,3.748,3.729,5.588,5.626c0.511,0.527,0.973,0.687,1.711,0.522C81.574,65.09,87.851,70.135,87.852,77.354z"/>
	<path display="inline" fill-rule="evenodd" clip-rule="evenodd" fill="#EFEFF1" d="M43.338,32.677
		c6.834,0.007,11.829,6.262,10.382,13.063c-0.149,0.701-0.04,1.119,0.455,1.599c1.704,1.652,3.344,3.371,5.06,5.011
		c0.533,0.51,0.464,0.77-0.025,1.245c-1.923,1.866-3.824,3.758-5.684,5.688c-0.535,0.555-0.841,0.531-1.359-0.006
		c-1.62-1.683-3.313-3.294-4.929-4.979c-0.481-0.501-0.91-0.623-1.591-0.487c-4.163,0.83-7.779-0.222-10.541-3.497
		c-2.689-3.188-3.186-6.852-1.82-10.769c0.506-1.45,0.982-1.546,2.08-0.458c1.929,1.915,3.841,3.848,5.771,5.763
		c1.346,1.335,2.827,1.446,3.943,0.32c1.068-1.078,0.928-2.645-0.366-3.944c-1.945-1.954-3.902-3.896-5.846-5.851
		c-0.989-0.994-0.89-1.429,0.44-1.939C40.603,32.938,41.94,32.64,43.338,32.677z"/>
	<path display="inline" fill-rule="evenodd" clip-rule="evenodd" fill="#EDEEF0" d="M84.477,51.238
		c0.252-0.23,0.467-0.447,0.703-0.638c0.84-0.68,1.922-0.641,2.589,0.084c0.653,0.711,0.662,1.719-0.077,2.486
		c-1.382,1.434-2.789,2.846-4.227,4.225c-0.748,0.717-1.801,0.689-2.477-0.009c-0.714-0.738-0.816-1.668-0.146-2.38
		c0.667-0.708,0.302-0.977-0.222-1.374c-0.762-0.579-1.494-1.197-2.261-1.769c-0.659-0.491-1.362-0.819-2.242-0.596
		c-0.642,0.163-1.285-0.087-1.68-0.545c-0.677-0.785-1.062-0.398-1.599,0.144c-3.749,3.781-7.514,7.548-11.293,11.299
		c-1.217,1.208-2.51,2.339-3.738,3.535c-0.385,0.375-0.607,0.416-1-0.013c-0.878-0.96-1.775-1.916-2.761-2.759
		c-0.605-0.519-0.471-0.783,0.012-1.234c2.261-2.111,4.369-4.375,6.653-6.47c2.935-2.689,5.654-5.612,8.488-8.413
		c0.423-0.418,0.545-0.702,0.128-1.222c-0.397-0.495-0.466-1.104-0.075-1.71c0.944-1.468,0.649-2.933-0.122-4.346
		c-0.962-1.763-2.555-2.823-4.319-3.632c-1.643-0.753-3.376-1.222-5.174-1.441c-0.294-0.036-0.711-0.056-0.766-0.378
		c-0.079-0.459,0.398-0.49,0.704-0.584c2.534-0.785,5.098-0.75,7.551,0.164c6.244,2.328,11.249,6.281,14.922,11.864
		c0.652,0.991,1.099,2.063,1.118,3.319C83.183,49.793,83.915,50.479,84.477,51.238z"/>
	<path display="inline" fill-rule="evenodd" clip-rule="evenodd" fill="#EEEFF1" d="M38.597,87.386
		c-0.544,0.063-0.944-0.205-1.31-0.573c-1.484-1.492-2.988-2.967-4.458-4.474c-0.918-0.941-0.912-1.659,0.073-2.546
		c5.856-5.272,11.723-10.534,17.602-15.782c0.968-0.864,1.771-0.801,2.715,0.113c0.771,0.745,1.528,1.503,2.276,2.271
		c0.936,0.962,0.97,1.799,0.069,2.807c-3.847,4.31-7.706,8.607-11.563,12.908c-1.379,1.538-2.768,3.067-4.141,4.61
		C39.518,87.108,39.163,87.432,38.597,87.386z"/>
</g>
<g id="icon_9" display="none">
	<line display="inline" fill="none" stroke="#A0A1A1" stroke-miterlimit="10" x1="63.604" y1="19.784" x2="35.73" y2="44.138"/>
	<line display="inline" fill="none" stroke="#A0A1A1" stroke-miterlimit="10" x1="69.638" y1="20.862" x2="89.896" y2="51.465"/>
	
		<ellipse display="inline" fill-rule="evenodd" clip-rule="evenodd" fill="#A0A1A1" stroke="#666666" stroke-miterlimit="10" cx="66.621" cy="19.784" rx="3.017" ry="2.946"/>
	<g display="inline">
		<path fill-rule="evenodd" clip-rule="evenodd" fill="#A0A1A1" d="M91.461,90.337c-0.341,3.282-3.306,5.688-6.588,5.348
			L29.63,89.939c-3.282-0.341-5.688-3.306-5.347-6.588l3.696-35.543c0.341-3.282,3.306-5.688,6.588-5.347l55.242,5.743
			c3.282,0.341,5.688,3.306,5.348,6.588L91.461,90.337z"/>
		<path fill="none" stroke="#666666" stroke-miterlimit="10" d="M91.461,90.337c-0.341,3.282-3.306,5.688-6.588,5.348L29.63,89.939
			c-3.282-0.341-5.688-3.306-5.347-6.588l3.696-35.543c0.341-3.282,3.306-5.688,6.588-5.347l55.242,5.743
			c3.282,0.341,5.688,3.306,5.348,6.588L91.461,90.337z"/>
	</g>
	<text transform="matrix(0.9772 0.0991 -0.1009 0.9949 28.3467 62.0127)" display="inline"><tspan x="0" y="0" fill="#FFFFFF" font-family="'ScriptMTBold'" font-size="22">Coming</tspan><tspan x="11.004" y="21" fill="#FFFFFF" font-family="'ScriptMTBold'" font-size="22">Soon</tspan></text>
</g>
</svg>
